^D:\PROJECT\VISUAL\CONSOLEAPPLICATION4\CONSOLEAPPLICATION4\CONSOLEAPPLICATION4.CPP
D:\PROJECT\VISUAL\CONSOLEAPPLICATION4\CONSOLEAPPLICATION4\DEBUG\VC142.PDB
D:\PROJECT\VISUAL\CONSOLEAPPLICATION4\CONSOLEAPPLICATION4\DEBUG\VC142.IDB
D:\PROJECT\VISUAL\CONSOLEAPPLICATION4\CONSOLEAPPLICATION4\DEBUG\CONSOLEAPPLICATION4.OBJ
